/* XPM */
static const char * filesaveas_xpm[] = {
"22 22 111 2",
"  	c None",
". 	c #6C8577",
"+ 	c #4D7991",
"@ 	c #38678B",
"# 	c #416C8A",
"$ 	c #57787D",
"% 	c #427092",
"& 	c #6296BB",
"* 	c #81ADD1",
"= 	c #74A8D3",
"- 	c #8FB6DB",
"; 	c #75A9D5",
"> 	c #63A0CE",
", 	c #53798A",
"' 	c #496E82",
") 	c #51798A",
"! 	c #67A2CE",
"~ 	c #44789C",
"{ 	c #3F7296",
"] 	c #3B6C91",
"^ 	c #477DA3",
"/ 	c #74A8D4",
"( 	c #6BA5D3",
"_ 	c #4A80A8",
": 	c #3F6A89",
"< 	c #5E7C79",
"[ 	c #6D8D8E",
"} 	c #5B7E88",
"| 	c #426E88",
"1 	c #477DA2",
"2 	c #5E9AC7",
"3 	c #5B96C1",
"4 	c #4A80A6",
"5 	c #3F6C86",
"6 	c #4D7282",
"7 	c #708A82",
"8 	c #538CB5",
"9 	c #5892BD",
"0 	c #609DCB",
"a 	c #547780",
"b 	c #607D6E",
"c 	c #5B7A72",
"d 	c #7C816D",
"e 	c #6E706B",
"f 	c #75796C",
"g 	c #688993",
"h 	c #54727B",
"i 	c #72756B",
"j 	c #F6F6F6",
"k 	c #609CCA",
"l 	c #838580",
"m 	c #ECECEC",
"n 	c #EBEBEB",
"o 	c #5089B2",
"p 	c #63A1D0",
"q 	c #D8DAD8",
"r 	c #9B9D99",
"s 	c #EAEBEA",
"t 	c #629FCE",
"u 	c #3C6D91",
"v 	c #E1E2E1",
"w 	c #949691",
"x 	c #CCCCCB",
"y 	c #E3E3E3",
"z 	c #67A3D2",
"A 	c #518BB5",
"B 	c #5C97C3",
"C 	c #5E99C6",
"D 	c #CFCFCD",
"E 	c #E6E6E6",
"F 	c #D2D6CC",
"G 	c #4E87B0",
"H 	c #5088B1",
"I 	c #CCD1C5",
"J 	c #777975",
"K 	c #CAD0C4",
"L 	c #7F817E",
"M 	c #8E8F8D",
"N 	c #E5E5E5",
"O 	c #EDEDED",
"P 	c #B8B8B8",
"Q 	c #E7E7E7",
"R 	c #E9E9E8",
"S 	c #D3D8CC",
"T 	c #E2E2E1",
"U 	c #E0E0E0",
"V 	c #B1B1B0",
"W 	c #676964",
"X 	c #D0D0D0",
"Y 	c #6D7465",
"Z 	c #6E7465",
"` 	c #CECECE",
" .	c #666864",
"..	c #DEDFDF",
"+.	c #DFDEDE",
"@.	c #DEDEDF",
"#.	c #DEDEDE",
"$.	c #DFDFDE",
"%.	c #000000",
"&.	c #DFDFDF",
"*.	c #E1E1E1",
"=.	c #E8E8E8",
"-.	c #CACACA",
";.	c #EEEEEE",
">.	c #F0F0EF",
",.	c #F0F0F1",
"'.	c #F0F0F0",
").	c #FAF9FA",
"!.	c #FFFFFF",
"~.	c #CBCBCB",
"{.	c #C8C8C8",
"      . + @ @ @ @ # $                       ",
"      % & * = - ; > , '                     ",
"    ) ! ~ { ] ^ > / ( _ :                   ",
"  < [ }       | 1 2 2 3 4 5                 ",
"  6 7           ] 8 9 3 0 a b               ",
"  c d e e e e f @ 9 9 9 9 g h e e e e       ",
"    i j j j j j @ 9 9 9 9 k @ j j j j e     ",
"    l m j n n n @ 9 o 9 9 p @ n n q n l     ",
"    r m s j @ @ @ 9 o 9 9 t @ u @ v n w     ",
"  e x y n n @ k k z o A 9 3 B C @ n n D e   ",
"  e E y n n F u k G H G o G B u I n n m e   ",
"  J m j n n n K @ k G G H B @ K n n j m L   ",
"  M m N j j O n K @ k H B @ K n j j N m M   ",
"e P Q R Q N j j j S @ k u S j j N N T U V e ",
"W X e e e e e e e e Y @ Z e e e e e e e `  .",
"e j e ..+.@.#...#.$.#.#...+.#.%.#.$.&.e j e ",
"e *.e =.-.-.-.-.-.-.-.-.-.-.;.%.>.,.'.e *.e ",
"e *.e ).-.-.-.-.-.-.-.-.-.-.!.%.!.!.!.e *.e ",
"e *.e !.!.!.!.!.!.!.!.!.!.!.!.%.!.!.!.e *.e ",
"e *.e e e e e e e e e e e e e e e e e e *.e ",
"e ~.*.*.*.*.*.*.*.*.*.*.*.*.*.*.*.*.*.*.{.e ",
"  e e e e e e e e e e e e e e e e e e e e   "};
